\addvspace {10\p@ }
\addvspace {10\p@ }
\addvspace {10\p@ }
\addvspace {10\p@ }
\addvspace {10\p@ }
\contentsline {table}{\numberline {V.1}{\ignorespaces Deskripsi Kebutuhan Minumum Perangkat Keras}}{14}% 
\contentsline {table}{\numberline {V.2}{\ignorespaces Deskripsi Kebutuhan Minumum Perangkat Lunak}}{15}% 
\contentsline {table}{\numberline {V.3}{\ignorespaces Definisi Aktor pada Sistem}}{15}% 
\contentsline {table}{\numberline {V.4}{\ignorespaces Definisi Usecase pada Sistem}}{15}% 
\contentsline {table}{\numberline {V.5}{\ignorespaces Skenario Usecase Melihat Home}}{17}% 
\contentsline {table}{\numberline {V.6}{\ignorespaces Skenario Usecase Melihat Produk}}{17}% 
\contentsline {table}{\numberline {V.7}{\ignorespaces Skenario Usecase Melihat Fitur}}{17}% 
\contentsline {table}{\numberline {V.8}{\ignorespaces Skenario Usecase Melihat \textit {Knowledge Base}}}{18}% 
\contentsline {table}{\numberline {V.9}{\ignorespaces Skenario Usecase Melihat Kontak}}{18}% 
\addvspace {10\p@ }
\contentsline {table}{\numberline {VI.1}{\ignorespaces Task Pembangunan Website Dhealth}}{36}% 
\contentsline {table}{\numberline {VI.2}{\ignorespaces Hasil Black-box Testing}}{38}% 
\contentsline {table}{\numberline {VI.3}{\ignorespaces Perangkat Keras Server}}{39}% 
\addvspace {10\p@ }
